// This code was created by pygmsh v4.1.0.
SetFactory("OpenCASCADE");
Mesh.CharacteristicLengthMin = 0.005;
Mesh.CharacteristicLengthMax = 0.005;
p0 = newp;
Point(p0) = {0.02399999, 0.02399999, 0.011300000000000001, 0.01};
p1 = newp;
Point(p1) = {-0.02399999, 0.02399999, 0.011300000000000001, 0.01};
p2 = newp;
Point(p2) = {-0.02399999, -0.08799999, 0.011300000000000001, 0.01};
p3 = newp;
Point(p3) = {0.02399999, -0.08799999, 0.011300000000000001, 0.01};
l0 = newl;
Line(l0) = {p0, p1};
l1 = newl;
Line(l1) = {p1, p2};
l2 = newl;
Line(l2) = {p2, p3};
l3 = newl;
Line(l3) = {p3, p0};
ll0 = newll;
Line Loop(ll0) = {l0, l1, l2, l3};
s0 = news;
Plane Surface(s0) = {ll0};
ex1[] = Extrude{0,0,0.00135}{Surface{s0};};
p4 = newp;
Point(p4) = {0.01699999, 0.01699999, 0.014650000000000002, 0.01};
p5 = newp;
Point(p5) = {-0.01699999, 0.01699999, 0.014650000000000002, 0.01};
p6 = newp;
Point(p6) = {-0.01699999, -0.04699999, 0.014650000000000002, 0.01};
p7 = newp;
Point(p7) = {0.01699999, -0.04699999, 0.014650000000000002, 0.01};
l4 = newl;
Line(l4) = {p4, p5};
l5 = newl;
Line(l5) = {p5, p6};
l6 = newl;
Line(l6) = {p6, p7};
l7 = newl;
Line(l7) = {p7, p4};
ll1 = newll;
Line Loop(ll1) = {l4, l5, l6, l7};
s1 = news;
Plane Surface(s1) = {ll1};
ex2[] = Extrude{0,0,0.003}{Surface{s1};};
p8 = newp;
Point(p8) = {-0.01599999, -0.08699999, 0.014650000000000002, 0.01};
p9 = newp;
Point(p9) = {0.01599999, -0.08699999, 0.014650000000000002, 0.01};
p10 = newp;
Point(p10) = {0.01599999, -0.05699999, 0.014650000000000002, 0.01};
p11 = newp;
Point(p11) = {-0.01599999, -0.05699999, 0.014650000000000002, 0.01};
l8 = newl;
Line(l8) = {p8, p9};
l9 = newl;
Line(l9) = {p9, p10};
l10 = newl;
Line(l10) = {p10, p11};
l11 = newl;
Line(l11) = {p11, p8};
ll2 = newll;
Line Loop(ll2) = {l8, l9, l10, l11};
s2 = news;
Plane Surface(s2) = {ll2};
ex3[] = Extrude{0,0,0.003}{Surface{s2};};
p12 = newp;
Point(p12) = {0.00999999, -0.02699999, 0.01315, 0.01};
p13 = newp;
Point(p13) = {-0.00999999, -0.02699999, 0.01315, 0.01};
p14 = newp;
Point(p14) = {-0.00999999, -0.07199999, 0.01315, 0.01};
p15 = newp;
Point(p15) = {0.00999999, -0.07199999, 0.01315, 0.01};
l12 = newl;
Line(l12) = {p12, p13};
l13 = newl;
Line(l13) = {p13, p14};
l14 = newl;
Line(l14) = {p14, p15};
l15 = newl;
Line(l15) = {p15, p12};
ll3 = newll;
Line Loop(ll3) = {l12, l13, l14, l15};
s3 = news;
Plane Surface(s3) = {ll3};
ex4[] = Extrude{0,0,0.0004}{Surface{s3};};